-------------------------------------------------------------------------------
Test set: TestSuite
-------------------------------------------------------------------------------
Tests run: 6, Failures: 1, Errors: 0, Skipped: 3, Time elapsed: 1.27 s <<< FAILURE! - in TestSuite
secondTest(learn.testng.altersuitelistener.test.SimpleTestClass)  Time elapsed: 0.013 s  <<< FAILURE!
java.lang.AssertionError: expected [true] but found [false]
	at learn.testng.altersuitelistener.test.SimpleTestClass.secondTest(SimpleTestClass.java:15)

