<?xml version="1.0" encoding="UTF-8"?>
<testng-results skipped="3" failed="1" ignored="0" total="6" passed="2">
  <reporter-output>
  </reporter-output>
  <suite name="Suite" duration-ms="118" started-at="2019-05-27T07:44:37Z" finished-at="2019-05-27T07:44:37Z">
    <groups>
      <group name="all">
        <method signature="SimpleTestClass.firstTest()[pri:0, instance:learn.testng.altersuitelistener.test.SimpleTestClass@2f7a2457]" name="firstTest" class="learn.testng.altersuitelistener.test.SimpleTestClass"/>
        <method signature="SimpleTestClass.secondTest()[pri:0, instance:learn.testng.altersuitelistener.test.SimpleTestClass@2f7a2457]" name="secondTest" class="learn.testng.altersuitelistener.test.SimpleTestClass"/>
        <method signature="SimpleTestClass.thirdTest()[pri:0, instance:learn.testng.altersuitelistener.test.SimpleTestClass@2f7a2457]" name="thirdTest" class="learn.testng.altersuitelistener.test.SimpleTestClass"/>
      </group> <!-- all -->
      <group name="secondtest">
        <method signature="SimpleTestClass.secondTest()[pri:0, instance:learn.testng.altersuitelistener.test.SimpleTestClass@2f7a2457]" name="secondTest" class="learn.testng.altersuitelistener.test.SimpleTestClass"/>
      </group> <!-- secondtest -->
      <group name="thirdTest">
        <method signature="SimpleTestClass.thirdTest()[pri:0, instance:learn.testng.altersuitelistener.test.SimpleTestClass@2f7a2457]" name="thirdTest" class="learn.testng.altersuitelistener.test.SimpleTestClass"/>
      </group> <!-- thirdTest -->
      <group name="FirstTest">
        <method signature="SimpleTestClass.firstTest()[pri:0, instance:learn.testng.altersuitelistener.test.SimpleTestClass@2f7a2457]" name="firstTest" class="learn.testng.altersuitelistener.test.SimpleTestClass"/>
      </group> <!-- FirstTest -->
    </groups>
    <test name="Testing" duration-ms="118" started-at="2019-05-27T07:44:37Z" finished-at="2019-05-27T07:44:37Z">
      <class name="learn.testng.altersuitelistener.test.SimpleTestClass">
        <test-method status="PASS" signature="thirdTest()[pri:0, instance:learn.testng.altersuitelistener.test.SimpleTestClass@2f7a2457]" name="thirdTest" duration-ms="14" started-at="2019-05-27T07:44:37Z" finished-at="2019-05-27T07:44:37Z">
          <reporter-output>
          </reporter-output>
        </test-method> <!-- thirdTest -->
        <test-method status="PASS" signature="firstTest()[pri:0, instance:learn.testng.altersuitelistener.test.SimpleTestClass@2f7a2457]" name="firstTest" duration-ms="14" started-at="2019-05-27T07:44:37Z" finished-at="2019-05-27T07:44:37Z">
          <reporter-output>
          </reporter-output>
        </test-method> <!-- firstTest -->
        <test-method status="SKIP" signature="secondTest()[pri:0, instance:learn.testng.altersuitelistener.test.SimpleTestClass@2f7a2457]" name="secondTest" duration-ms="19" started-at="2019-05-27T07:44:37Z" finished-at="2019-05-27T07:44:37Z">
          <exception class="java.lang.AssertionError">
            <message>
              <![CDATA[expected [true] but found [false]]]>
            </message>
            <full-stacktrace>
              <![CDATA[java.lang.AssertionError: expected [true] but found [false]
at org.testng.Assert.fail(Assert.java:96)
at org.testng.Assert.failNotEquals(Assert.java:776)
at org.testng.Assert.assertTrue(Assert.java:44)
at org.testng.Assert.assertTrue(Assert.java:54)
at learn.testng.altersuitelistener.test.SimpleTestClass.secondTest(SimpleTestClass.java:15)
at sun.reflect.NativeMethodAccessorImpl.invoke0(Native Method)
at sun.reflect.NativeMethodAccessorImpl.invoke(NativeMethodAccessorImpl.java:62)
at sun.reflect.DelegatingMethodAccessorImpl.invoke(DelegatingMethodAccessorImpl.java:43)
at java.lang.reflect.Method.invoke(Method.java:483)
at org.testng.internal.MethodInvocationHelper.invokeMethod(MethodInvocationHelper.java:124)
at org.testng.internal.Invoker.invokeMethod(Invoker.java:583)
at org.testng.internal.Invoker.invokeTestMethod(Invoker.java:719)
at org.testng.internal.Invoker.invokeTestMethods(Invoker.java:989)
at org.testng.internal.TestMethodWorker.invokeTestMethods(TestMethodWorker.java:125)
at org.testng.internal.TestMethodWorker.run(TestMethodWorker.java:109)
at java.util.concurrent.ThreadPoolExecutor.runWorker(ThreadPoolExecutor.java:1142)
at java.util.concurrent.ThreadPoolExecutor$Worker.run(ThreadPoolExecutor.java:617)
at java.lang.Thread.run(Thread.java:745)
]]>
            </full-stacktrace>
          </exception> <!-- java.lang.AssertionError -->
          <reporter-output>
          </reporter-output>
        </test-method> <!-- secondTest -->
        <test-method status="SKIP" signature="secondTest()[pri:0, instance:learn.testng.altersuitelistener.test.SimpleTestClass@2f7a2457]" name="secondTest" duration-ms="0" started-at="2019-05-27T07:44:37Z" finished-at="2019-05-27T07:44:37Z">
          <exception class="java.lang.AssertionError">
            <message>
              <![CDATA[expected [true] but found [false]]]>
            </message>
            <full-stacktrace>
              <![CDATA[java.lang.AssertionError: expected [true] but found [false]
at org.testng.Assert.fail(Assert.java:96)
at org.testng.Assert.failNotEquals(Assert.java:776)
at org.testng.Assert.assertTrue(Assert.java:44)
at org.testng.Assert.assertTrue(Assert.java:54)
at learn.testng.altersuitelistener.test.SimpleTestClass.secondTest(SimpleTestClass.java:15)
at sun.reflect.NativeMethodAccessorImpl.invoke0(Native Method)
at sun.reflect.NativeMethodAccessorImpl.invoke(NativeMethodAccessorImpl.java:62)
at sun.reflect.DelegatingMethodAccessorImpl.invoke(DelegatingMethodAccessorImpl.java:43)
at java.lang.reflect.Method.invoke(Method.java:483)
at org.testng.internal.MethodInvocationHelper.invokeMethod(MethodInvocationHelper.java:124)
at org.testng.internal.Invoker.invokeMethod(Invoker.java:583)
at org.testng.internal.Invoker.retryFailed(Invoker.java:839)
at org.testng.internal.Invoker.invokeTestMethods(Invoker.java:1010)
at org.testng.internal.TestMethodWorker.invokeTestMethods(TestMethodWorker.java:125)
at org.testng.internal.TestMethodWorker.run(TestMethodWorker.java:109)
at java.util.concurrent.ThreadPoolExecutor.runWorker(ThreadPoolExecutor.java:1142)
at java.util.concurrent.ThreadPoolExecutor$Worker.run(ThreadPoolExecutor.java:617)
at java.lang.Thread.run(Thread.java:745)
]]>
            </full-stacktrace>
          </exception> <!-- java.lang.AssertionError -->
          <reporter-output>
          </reporter-output>
        </test-method> <!-- secondTest -->
        <test-method status="SKIP" signature="secondTest()[pri:0, instance:learn.testng.altersuitelistener.test.SimpleTestClass@2f7a2457]" name="secondTest" duration-ms="1" started-at="2019-05-27T07:44:37Z" finished-at="2019-05-27T07:44:37Z">
          <exception class="java.lang.AssertionError">
            <message>
              <![CDATA[expected [true] but found [false]]]>
            </message>
            <full-stacktrace>
              <![CDATA[java.lang.AssertionError: expected [true] but found [false]
at org.testng.Assert.fail(Assert.java:96)
at org.testng.Assert.failNotEquals(Assert.java:776)
at org.testng.Assert.assertTrue(Assert.java:44)
at org.testng.Assert.assertTrue(Assert.java:54)
at learn.testng.altersuitelistener.test.SimpleTestClass.secondTest(SimpleTestClass.java:15)
at sun.reflect.NativeMethodAccessorImpl.invoke0(Native Method)
at sun.reflect.NativeMethodAccessorImpl.invoke(NativeMethodAccessorImpl.java:62)
at sun.reflect.DelegatingMethodAccessorImpl.invoke(DelegatingMethodAccessorImpl.java:43)
at java.lang.reflect.Method.invoke(Method.java:483)
at org.testng.internal.MethodInvocationHelper.invokeMethod(MethodInvocationHelper.java:124)
at org.testng.internal.Invoker.invokeMethod(Invoker.java:583)
at org.testng.internal.Invoker.retryFailed(Invoker.java:839)
at org.testng.internal.Invoker.invokeTestMethods(Invoker.java:1010)
at org.testng.internal.TestMethodWorker.invokeTestMethods(TestMethodWorker.java:125)
at org.testng.internal.TestMethodWorker.run(TestMethodWorker.java:109)
at java.util.concurrent.ThreadPoolExecutor.runWorker(ThreadPoolExecutor.java:1142)
at java.util.concurrent.ThreadPoolExecutor$Worker.run(ThreadPoolExecutor.java:617)
at java.lang.Thread.run(Thread.java:745)
]]>
            </full-stacktrace>
          </exception> <!-- java.lang.AssertionError -->
          <reporter-output>
          </reporter-output>
        </test-method> <!-- secondTest -->
        <test-method status="FAIL" signature="secondTest()[pri:0, instance:learn.testng.altersuitelistener.test.SimpleTestClass@2f7a2457]" name="secondTest" duration-ms="0" started-at="2019-05-27T07:44:37Z" finished-at="2019-05-27T07:44:37Z">
          <exception class="java.lang.AssertionError">
            <message>
              <![CDATA[expected [true] but found [false]]]>
            </message>
            <full-stacktrace>
              <![CDATA[java.lang.AssertionError: expected [true] but found [false]
at org.testng.Assert.fail(Assert.java:96)
at org.testng.Assert.failNotEquals(Assert.java:776)
at org.testng.Assert.assertTrue(Assert.java:44)
at org.testng.Assert.assertTrue(Assert.java:54)
at learn.testng.altersuitelistener.test.SimpleTestClass.secondTest(SimpleTestClass.java:15)
at sun.reflect.NativeMethodAccessorImpl.invoke0(Native Method)
at sun.reflect.NativeMethodAccessorImpl.invoke(NativeMethodAccessorImpl.java:62)
at sun.reflect.DelegatingMethodAccessorImpl.invoke(DelegatingMethodAccessorImpl.java:43)
at java.lang.reflect.Method.invoke(Method.java:483)
at org.testng.internal.MethodInvocationHelper.invokeMethod(MethodInvocationHelper.java:124)
at org.testng.internal.Invoker.invokeMethod(Invoker.java:583)
at org.testng.internal.Invoker.retryFailed(Invoker.java:839)
at org.testng.internal.Invoker.invokeTestMethods(Invoker.java:1010)
at org.testng.internal.TestMethodWorker.invokeTestMethods(TestMethodWorker.java:125)
at org.testng.internal.TestMethodWorker.run(TestMethodWorker.java:109)
at java.util.concurrent.ThreadPoolExecutor.runWorker(ThreadPoolExecutor.java:1142)
at java.util.concurrent.ThreadPoolExecutor$Worker.run(ThreadPoolExecutor.java:617)
at java.lang.Thread.run(Thread.java:745)
]]>
            </full-stacktrace>
          </exception> <!-- java.lang.AssertionError -->
          <reporter-output>
          </reporter-output>
        </test-method> <!-- secondTest -->
      </class> <!-- learn.testng.altersuitelistener.test.SimpleTestClass -->
    </test> <!-- Testing -->
  </suite> <!-- Suite -->
</testng-results>
