C:\Workspace\AlterSuiteListener\src\main\java\learn\testng\altersuitelistener\listener\RetryFailed.java
C:\Workspace\AlterSuiteListener\src\main\java\learn\testng\altersuitelistener\test\SimpleTestClass.java
C:\Workspace\AlterSuiteListener\src\main\java\learn\testng\altersuitelistener\listener\AlterSuiteListener.java
C:\Workspace\AlterSuiteListener\src\main\java\learn\testng\altersuitelistener\listener\AnnotationTransformer.java
